part_3/mac_tile_tb.vcd
$date
	Sat Nov 29 22:02:26 2025
$end
$version
	Icarus Verilog
$end
$timescale
	1ps
$end
$scope module mac_tile_tb $end
$var wire 16 ! out_s [15:0] $end
$var wire 4 " out_e [3:0] $end
$var wire 3 # inst_e [2:0] $end
$var reg 1 $ clk $end
$var reg 16 % in_n [15:0] $end
$var reg 4 & in_w [3:0] $end
$var reg 3 ' inst_w [2:0] $end
$var reg 1 ( reset $end
$scope module dut $end
$var wire 1 $ clk $end
$var wire 16 ) in_n [15:0] $end
$var wire 4 * in_w [3:0] $end
$var wire 3 + inst_e [2:0] $end
$var wire 3 , inst_w [2:0] $end
$var wire 4 - out_e [3:0] $end
$var wire 1 ( reset $end
$var wire 16 . out_s [15:0] $end
$var wire 1 / os $end
$var wire 16 0 mac_out [15:0] $end
$var wire 1 1 kflush $end
$var wire 1 2 execute $end
$var reg 4 3 a_q [3:0] $end
$var reg 4 4 b_q [3:0] $end
$var reg 16 5 c_q [15:0] $end
$var reg 3 6 inst_q [2:0] $end
$var reg 1 7 load_ready_q $end
$scope module mac_instance $end
$var wire 4 8 a [3:0] $end
$var wire 4 9 b [3:0] $end
$var wire 16 : c [15:0] $end
$var wire 16 ; out [15:0] $end
$var wire 16 < psum [15:0] $end
$var wire 9 = product [8:0] $end
$var wire 5 > a_pad [4:0] $end
$upscope $end
$upscope $end
$upscope $end
$enddefinitions $end
#0
$dumpvars
b0xxxx >
bx =
bx <
bx ;
bx :
bx 9
bx 8
x7
bx 6
bx 5
bx 4
bx 3
02
01
bx 0
0/
bx .
bx -
b0 ,
bx +
b0 *
b0 )
1(
b0 '
b0 &
b0 %
0$
bx #
bx "
bx !
$end
#5000
b0 !
b0 .
b0 0
b0 ;
b0 <
b0 =
b0 >
b0 "
b0 -
b0 3
b0 8
b0 #
b0 +
b0 6
17
b0 4
b0 9
b0 5
b0 :
1$
#10000
0$
#15000
1$
#20000
11
0$
b1 '
b1 ,
b11 &
b11 *
0(
#25000
b1001 !
b1001 .
b1001 0
b1001 ;
b1001 <
b1001 =
b11 >
b11 "
b11 -
b11 3
b11 8
07
b11 4
b11 9
b1 #
b1 +
b1 6
1$
#30000
0$
b101 &
b101 *
#35000
b1111 !
b1111 .
b1111 0
b1111 ;
b1111 <
b1111 =
b101 >
b101 "
b101 -
b101 3
b101 8
1$
#40000
12
01
0$
b10 '
b10 ,
b1010 %
b1010 )
b10 &
b10 *
#45000
b10000 !
b10000 .
b110 =
b10 >
b10 "
b10 -
b10 3
b10 8
b10 #
b10 +
b10 6
b10000 0
b10000 ;
b10000 <
b1010 5
b1010 :
1$
#50000
0$
b101 %
b101 )
b11 &
b11 *
#55000
b1110 !
b1110 .
b101 5
b101 :
b1110 0
b1110 ;
b1110 <
b1001 =
b11 >
b11 "
b11 -
b11 3
b11 8
1$
#60000
02
0$
b0 '
b0 ,
b0 &
b0 *
b0 %
b0 )
1(
#65000
b0 !
b0 .
b0 >
b0 "
b0 -
b0 3
b0 8
b0 #
b0 +
b0 6
17
b0 =
b0 4
b0 9
b0 0
b0 ;
b0 <
b0 5
b0 :
1$
#70000
0$
#75000
1$
#80000
12
1/
0$
b100 &
b100 *
b10 %
b10 )
b110 '
b110 ,
0(
#85000
b10 !
b10 .
b1000 0
b1000 ;
b1000 <
b1000 =
b100 >
b100 "
b100 -
b100 3
b100 8
b10 4
b10 9
b110 #
b110 +
b110 6
1$
#90000
0$
b1 &
b1 *
b100 %
b100 )
#95000
b100 !
b100 .
b1000 5
b1000 :
b100 4
b100 9
b1100 0
b1100 ;
b1100 <
b100 =
b1 >
b1 "
b1 -
b1 3
b1 8
1$
#100000
0$
b1110 %
b1110 )
#105000
b1111111111111110 !
b1111111111111110 .
b111111110 =
b1110 4
b1110 9
b1010 0
b1010 ;
b1010 <
b1100 5
b1100 :
1$
#110000
0$
b0 %
b0 )
#115000
b0 !
b0 .
b1010 5
b1010 :
b1010 0
b1010 ;
b1010 <
b0 =
b0 4
b0 9
1$
#120000
0$
#125000
1$
#130000
b1010 !
b1010 .
02
0$
b100 '
b100 ,
#135000
b100 #
b100 +
b100 6
1$
#140000
0$
#145000
1$
#150000
0$
#155000
1$
#160000
0$
#165000
1$
#170000
11
0$
b101 '
b101 ,
#175000
b0 !
b0 .
b0 0
b0 ;
b0 <
b0 5
b0 :
b101 #
b101 +
b101 6
1$
