part_3/mac_tile_tb.vcd
$date
	Fri Nov 28 18:57:17 2025
$end
$version
	Icarus Verilog
$end
$timescale
	1ps
$end
$scope module mac_tile_tb $end
$var wire 16 ! out_s [15:0] $end
$var wire 4 " out_e [3:0] $end
$var wire 3 # inst_e [2:0] $end
$var reg 1 $ clk $end
$var reg 16 % in_n [15:0] $end
$var reg 4 & in_w [3:0] $end
$var reg 3 ' inst_w [2:0] $end
$var reg 1 ( reset $end
$scope module dut $end
$var wire 1 $ clk $end
$var wire 16 ) in_n [15:0] $end
$var wire 4 * in_w [3:0] $end
$var wire 3 + inst_e [2:0] $end
$var wire 3 , inst_w [2:0] $end
$var wire 4 - out_e [3:0] $end
$var wire 1 ( reset $end
$var wire 16 . out_s [15:0] $end
$var wire 1 / os $end
$var wire 16 0 mac_out [15:0] $end
$var wire 1 1 execute $end
$var reg 4 2 a_q [3:0] $end
$var reg 4 3 b_q [3:0] $end
$var reg 16 4 c_q [15:0] $end
$var reg 3 5 inst_q [2:0] $end
$var reg 1 6 load_ready_q $end
$scope module mac_instance $end
$var wire 4 7 a [3:0] $end
$var wire 4 8 b [3:0] $end
$var wire 16 9 c [15:0] $end
$var wire 16 : out [15:0] $end
$var wire 16 ; psum [15:0] $end
$var wire 9 < product [8:0] $end
$var wire 5 = a_pad [4:0] $end
$upscope $end
$upscope $end
$upscope $end
$enddefinitions $end
#0
$dumpvars
b0xxxx =
bx <
bx ;
bx :
bx 9
bx 8
bx 7
x6
bx 5
bx 4
bx 3
bx 2
01
bx 0
0/
bx .
bx -
b0 ,
bx +
b0 *
b0 )
1(
b0 '
b0 &
b0 %
0$
bx #
bx "
bx !
$end
#5000
b0 !
b0 .
b0 0
b0 :
b0 ;
b0 <
b0 =
b0 "
b0 -
b0 2
b0 7
b0 #
b0 +
b0 5
16
b0 3
b0 8
b0 4
b0 9
1$
#10000
0$
#15000
1$
#20000
0$
b1 '
b1 ,
b11 &
b11 *
0(
#25000
b1001 !
b1001 .
b1001 0
b1001 :
b1001 ;
b1001 <
b11 =
b11 "
b11 -
b11 2
b11 7
06
b11 3
b11 8
1$
#30000
0$
b101 &
b101 *
#35000
b1111 !
b1111 .
b1 #
b1 +
b1 5
b1111 0
b1111 :
b1111 ;
b1111 <
b101 =
b101 "
b101 -
b101 2
b101 7
1$
#40000
11
0$
b10 '
b10 ,
b1010 %
b1010 )
b10 &
b10 *
#45000
b10000 !
b10000 .
b110 <
b10 =
b10 "
b10 -
b10 2
b10 7
b10 #
b10 +
b10 5
b10000 0
b10000 :
b10000 ;
b1010 4
b1010 9
1$
#50000
0$
b101 %
b101 )
b11 &
b11 *
#55000
b1110 !
b1110 .
b101 4
b101 9
b1110 0
b1110 :
b1110 ;
b1001 <
b11 =
b11 "
b11 -
b11 2
b11 7
1$
#60000
01
0$
b0 '
b0 ,
b0 &
b0 *
b0 %
b0 )
1(
#65000
b0 !
b0 .
b0 =
b0 "
b0 -
b0 2
b0 7
b0 #
b0 +
b0 5
16
b0 <
b0 3
b0 8
b0 0
b0 :
b0 ;
b0 4
b0 9
1$
#70000
0$
#75000
1$
#80000
11
1/
0$
b100 &
b100 *
b10 %
b10 )
b110 '
b110 ,
0(
#85000
b10 !
b10 .
b1000 0
b1000 :
b1000 ;
b1000 <
b100 =
b100 "
b100 -
b100 2
b100 7
b10 3
b10 8
b110 #
b110 +
b110 5
1$
#90000
0$
b1 &
b1 *
b100 %
b100 )
#95000
b100 !
b100 .
b1000 4
b1000 9
b100 3
b100 8
b1100 0
b1100 :
b1100 ;
b100 <
b1 =
b1 "
b1 -
b1 2
b1 7
1$
#100000
0$
b1110 %
b1110 )
#105000
b1110 !
b1110 .
b111111110 <
b1110 3
b1110 8
b1010 0
b1010 :
b1010 ;
b1100 4
b1100 9
1$
#110000
0$
b0 %
b0 )
#115000
b0 !
b0 .
b1010 4
b1010 9
b1010 0
b1010 :
b1010 ;
b0 <
b0 3
b0 8
1$
#120000
0$
#125000
1$
#130000
b1010 !
b1010 .
01
0$
b100 '
b100 ,
#135000
b100 #
b100 +
b100 5
1$
#140000
0$
#145000
1$
#150000
0$
#155000
1$
#160000
0$
#165000
1$
#170000
0$
b111111111 %
b111111111 )
b101 '
b101 ,
#175000
b111111111 !
b111111111 .
b111111111 0
b111111111 :
b111111111 ;
b111111111 4
b111111111 9
b101 #
b101 +
b101 5
1$
#180000
0$
b1111111100111000 %
b1111111100111000 )
#185000
b1111111100111000 !
b1111111100111000 .
b1111111100111000 0
b1111111100111000 :
b1111111100111000 ;
b1111111100111000 4
b1111111100111000 9
1$
